<?xml version="1.0" encoding="UTF-8"?>
<!DOCTYPE svg PUBLIC "-//W3C//DTD SVG 1.1//EN" "http://www.w3.org/Graphics/SVG/1.1/DTD/svg11.dtd">
<svg version="1.2" width="61.6mm" height="16.41mm" viewBox="13000 16880 6160 1641" preserveAspectRatio="xMidYMid" fill-rule="evenodd" stroke-width="28.222" stroke-linejoin="round" xmlns="http://www.w3.org/2000/svg" xmlns:ooo="http://xml.openoffice.org/svg/export" xmlns:xlink="http://www.w3.org/1999/xlink" xmlns:presentation="http://sun.com/xmlns/staroffice/presentation" xmlns:smil="http://www.w3.org/2001/SMIL20/" xmlns:anim="urn:oasis:names:tc:opendocument:xmlns:animation:1.0" xml:space="preserve">
 <defs class="ClipPathGroup">
  <clipPath id="presentation_clip_path" clipPathUnits="userSpaceOnUse">
   <rect x="13000" y="16880" width="6160" height="1641"/>
  </clipPath>
  <clipPath id="presentation_clip_path_shrink" clipPathUnits="userSpaceOnUse">
   <rect x="13006" y="16881" width="6148" height="1638"/>
  </clipPath>
 </defs>
 <defs>
  <font id="EmbeddedFont_1" horiz-adv-x="2048">
   <font-face font-family="Liberation Serif embedded" units-per-em="2048" font-weight="normal" font-style="italic" ascent="1799" descent="423"/>
   <missing-glyph horiz-adv-x="2048" d="M 0,0 L 2047,0 2047,2047 0,2047 0,0 Z"/>
   <glyph unicode="y" horiz-adv-x="1112" d="M 52,940 L 308,940 453,208 688,614 C 710,653 726,688 737,721 747,753 752,782 752,807 752,832 745,851 731,866 717,881 702,890 686,895 L 694,940 884,940 C 890,935 896,926 902,915 907,904 910,891 910,877 910,856 904,828 893,793 882,758 860,713 827,657 L 431,-9 C 392,-76 355,-136 320,-189 285,-242 250,-288 215,-325 180,-362 143,-391 105,-411 66,-431 24,-441 -22,-441 -39,-441 -54,-441 -68,-441 -80,-441 -92,-440 -104,-438 -114,-437 -125,-435 -136,-433 -147,-430 -158,-428 -171,-424 L -134,-221 -89,-221 -73,-317 C -56,-332 -29,-340 9,-340 38,-340 66,-332 93,-315 120,-298 145,-277 170,-251 194,-224 217,-195 238,-163 259,-131 277,-100 294,-70 L 339,12 156,870 44,895 52,940 Z"/>
   <glyph unicode="x" horiz-adv-x="927" d="M 248,236 C 227,215 209,197 196,182 182,167 171,153 163,142 155,130 150,119 147,110 144,101 142,92 142,84 142,73 146,65 154,59 161,53 171,48 184,45 L 176,0 -9,0 C -13,3 -17,9 -20,17 -23,24 -25,33 -25,43 -25,52 -22,63 -18,74 -12,85 -5,97 6,111 17,125 31,141 48,159 65,177 87,198 112,221 L 385,475 213,870 106,895 114,940 362,940 507,582 631,700 C 674,741 704,773 721,796 738,819 747,839 747,856 747,861 745,866 742,870 738,874 733,878 727,881 721,884 715,886 708,889 701,891 694,893 688,895 L 696,940 873,940 C 879,935 884,930 888,923 892,916 894,907 894,897 894,858 848,794 756,707 L 542,506 734,66 850,45 842,0 586,0 419,400 248,236 Z"/>
   <glyph unicode="n" horiz-adv-x="901" d="M 755,748 C 755,778 747,802 731,821 715,840 690,849 655,849 627,849 598,843 569,830 540,817 511,800 484,779 457,758 431,735 408,709 385,682 365,656 349,630 L 239,0 73,0 226,871 108,896 116,941 394,941 367,749 C 392,782 419,811 447,838 474,865 503,887 533,906 562,925 593,939 624,950 655,960 686,965 718,965 749,965 777,961 802,953 827,945 848,932 866,915 883,898 897,876 907,849 916,822 921,791 921,754 921,746 920,735 919,722 917,708 915,693 912,677 909,661 907,645 904,628 901,611 899,595 896,580 L 808,69 939,45 931,0 630,0 732,582 C 735,597 737,612 740,628 743,644 745,660 748,675 750,690 752,704 753,717 754,730 755,740 755,748 Z"/>
   <glyph unicode="G" horiz-adv-x="1324" d="M 1215,86 C 1174,70 1133,56 1092,43 1051,30 1010,19 967,10 924,1 880,-6 835,-11 789,-16 741,-18 690,-18 598,-18 516,-5 445,20 373,45 313,80 264,127 215,174 177,230 152,297 126,364 113,439 113,523 113,657 134,776 177,879 220,982 278,1069 353,1140 428,1211 516,1264 618,1301 719,1338 829,1356 947,1356 1033,1356 1112,1351 1185,1340 1257,1329 1327,1315 1394,1296 L 1343,1008 1276,1008 1279,1174 C 1238,1207 1190,1232 1133,1250 1076,1267 1012,1276 941,1276 858,1276 778,1259 702,1226 626,1192 559,1142 502,1077 445,1012 399,931 365,835 331,738 314,628 314,503 314,430 324,365 343,310 362,255 388,209 422,172 456,135 497,108 545,90 592,71 645,62 703,62 739,62 773,65 806,71 839,76 869,84 898,93 927,102 953,111 976,122 999,133 1019,143 1035,153 L 1098,506 931,532 940,586 1435,586 1426,532 1290,506 1215,86 Z"/>
  </font>
 </defs>
 <defs>
  <font id="EmbeddedFont_2" horiz-adv-x="2048">
   <font-face font-family="OpenSymbol embedded" units-per-em="2048" font-weight="normal" font-style="normal" ascent="1402" descent="423"/>
   <missing-glyph horiz-adv-x="2048" d="M 0,0 L 2047,0 2047,2047 0,2047 0,0 Z"/>
   <glyph unicode="×" horiz-adv-x="1191" d="M 221,70 L 743,592 221,1114 293,1184 813,662 1337,1184 1405,1114 883,592 1405,70 1337,0 813,522 293,0 221,70 Z"/>
   <glyph unicode="]" horiz-adv-x="398" d="M 428,-403 L 74,-403 74,-330 330,-330 330,1553 74,1553 74,1622 428,1622 428,-403 Z"/>
   <glyph unicode="[" horiz-adv-x="372" d="M 150,-403 L 150,1622 504,1622 504,1552 248,1552 248,-332 504,-332 504,-403 150,-403 Z"/>
  </font>
 </defs>
 <defs class="TextShapeIndex">
  <g ooo:slide="id1" ooo:id-list="id3 id4 id5 id6 id7 id8"/>
 </defs>
 <defs class="EmbeddedBulletChars">
  <g id="bullet-char-template(57356)" transform="scale(0.00048828125,-0.00048828125)">
   <path d="M 580,1141 L 1163,571 580,0 -4,571 580,1141 Z"/>
  </g>
  <g id="bullet-char-template(57354)" transform="scale(0.00048828125,-0.00048828125)">
   <path d="M 8,1128 L 1137,1128 1137,0 8,0 8,1128 Z"/>
  </g>
  <g id="bullet-char-template(10146)" transform="scale(0.00048828125,-0.00048828125)">
   <path d="M 174,0 L 602,739 174,1481 1456,739 174,0 Z M 1358,739 L 309,1346 659,739 1358,739 Z"/>
  </g>
  <g id="bullet-char-template(10132)" transform="scale(0.00048828125,-0.00048828125)">
   <path d="M 2015,739 L 1276,0 717,0 1260,543 174,543 174,936 1260,936 717,1481 1274,1481 2015,739 Z"/>
  </g>
  <g id="bullet-char-template(10007)" transform="scale(0.00048828125,-0.00048828125)">
   <path d="M 0,-2 C -7,14 -16,27 -25,37 L 356,567 C 262,823 215,952 215,954 215,979 228,992 255,992 264,992 276,990 289,987 310,991 331,999 354,1012 L 381,999 492,748 772,1049 836,1024 860,1049 C 881,1039 901,1025 922,1006 886,937 835,863 770,784 769,783 710,716 594,584 L 774,223 C 774,196 753,168 711,139 L 727,119 C 717,90 699,76 672,76 641,76 570,178 457,381 L 164,-76 C 142,-110 111,-127 72,-127 30,-127 9,-110 8,-76 1,-67 -2,-52 -2,-32 -2,-23 -1,-13 0,-2 Z"/>
  </g>
  <g id="bullet-char-template(10004)" transform="scale(0.00048828125,-0.00048828125)">
   <path d="M 285,-33 C 182,-33 111,30 74,156 52,228 41,333 41,471 41,549 55,616 82,672 116,743 169,778 240,778 293,778 328,747 346,684 L 369,508 C 377,444 397,411 428,410 L 1163,1116 C 1174,1127 1196,1133 1229,1133 1271,1133 1292,1118 1292,1087 L 1292,965 C 1292,929 1282,901 1262,881 L 442,47 C 390,-6 338,-33 285,-33 Z"/>
  </g>
  <g id="bullet-char-template(9679)" transform="scale(0.00048828125,-0.00048828125)">
   <path d="M 813,0 C 632,0 489,54 383,161 276,268 223,411 223,592 223,773 276,916 383,1023 489,1130 632,1184 813,1184 992,1184 1136,1130 1245,1023 1353,916 1407,772 1407,592 1407,412 1353,268 1245,161 1136,54 992,0 813,0 Z"/>
  </g>
  <g id="bullet-char-template(8226)" transform="scale(0.00048828125,-0.00048828125)">
   <path d="M 346,457 C 273,457 209,483 155,535 101,586 74,649 74,723 74,796 101,859 155,911 209,963 273,989 346,989 419,989 480,963 531,910 582,859 608,796 608,723 608,648 583,586 532,535 482,483 420,457 346,457 Z"/>
  </g>
  <g id="bullet-char-template(8211)" transform="scale(0.00048828125,-0.00048828125)">
   <path d="M -4,459 L 1135,459 1135,606 -4,606 -4,459 Z"/>
  </g>
  <g id="bullet-char-template(61548)" transform="scale(0.00048828125,-0.00048828125)">
   <path d="M 173,740 C 173,903 231,1043 346,1159 462,1274 601,1332 765,1332 928,1332 1067,1274 1183,1159 1299,1043 1357,903 1357,740 1357,577 1299,437 1183,322 1067,206 928,148 765,148 601,148 462,206 346,322 231,437 173,577 173,740 Z"/>
  </g>
 </defs>
 <defs class="TextEmbeddedBitmaps"/>
 <g class="SlideGroup">
  <g>
   <g id="container-id1">
    <g id="id1" class="Slide" clip-path="url(#presentation_clip_path)">
     <g class="Page">
      <g class="com.sun.star.drawing.LineShape">
       <g id="id3">
        <rect class="BoundingBox" stroke="none" fill="none" x="13982" y="17524" width="1219" height="353"/>
        <path fill="none" stroke="rgb(0,0,0)" stroke-width="35" stroke-linejoin="round" d="M 14000,17700 L 14695,17700"/>
        <path fill="rgb(0,0,0)" stroke="none" d="M 15200,17700 L 14672,17524 14672,17876 15200,17700 Z"/>
       </g>
      </g>
      <g class="com.sun.star.drawing.LineShape">
       <g id="id4">
        <rect class="BoundingBox" stroke="none" fill="none" x="16973" y="17524" width="1219" height="353"/>
        <path fill="none" stroke="rgb(0,0,0)" stroke-width="35" stroke-linejoin="round" d="M 16991,17700 L 17686,17700"/>
        <path fill="rgb(0,0,0)" stroke="none" d="M 18191,17700 L 17663,17524 17663,17876 18191,17700 Z"/>
       </g>
      </g>
      <g class="OLE2">
       <g id="id5">
        <rect class="BoundingBox" stroke="none" fill="none" x="13000" y="17460" width="992" height="481"/>
        <defs>
         <clipPath id="clip_path_1" clipPathUnits="userSpaceOnUse">
          <path d="M 12991,17463 L 13996,17463 13996,17939 12991,17939 12991,17463 Z"/>
         </clipPath>
        </defs>
        <g clip-path="url(#clip_path_1)">
         <text class="TextShape"><tspan class="TextParagraph" font-family="Liberation Serif, serif" font-size="422px" font-style="italic" font-weight="400"><tspan class="TextPosition" x="13132" y="17830"><tspan fill="rgb(0,0,0)" stroke="none">x</tspan></tspan></tspan></text>
         <text class="TextShape"><tspan class="TextParagraph" font-family="OpenSymbol" font-size="422px" font-weight="400"><tspan class="TextPosition" x="13370" y="17830"><tspan fill="rgb(0,0,0)" stroke="none">[</tspan></tspan></tspan></text>
         <text class="TextShape"><tspan class="TextParagraph" font-family="Liberation Serif, serif" font-size="422px" font-style="italic" font-weight="400"><tspan class="TextPosition" x="13529" y="17830"><tspan fill="rgb(0,0,0)" stroke="none">n</tspan></tspan></tspan></text>
         <text class="TextShape"><tspan class="TextParagraph" font-family="OpenSymbol" font-size="422px" font-weight="400"><tspan class="TextPosition" x="13767" y="17830"><tspan fill="rgb(0,0,0)" stroke="none">]</tspan></tspan></tspan></text>
        </g>
       </g>
      </g>
      <g class="OLE2">
       <g id="id6">
        <rect class="BoundingBox" stroke="none" fill="none" x="18134" y="17460" width="1027" height="481"/>
        <defs>
         <clipPath id="clip_path_2" clipPathUnits="userSpaceOnUse">
          <path d="M 18124,17463 L 19156,17463 19156,17939 18124,17939 18124,17463 Z"/>
         </clipPath>
        </defs>
        <g clip-path="url(#clip_path_2)">
         <text class="TextShape"><tspan class="TextParagraph" font-family="Liberation Serif, serif" font-size="422px" font-style="italic" font-weight="400"><tspan class="TextPosition" x="18293" y="17830"><tspan fill="rgb(0,0,0)" stroke="none">y</tspan></tspan></tspan></text>
         <text class="TextShape"><tspan class="TextParagraph" font-family="OpenSymbol" font-size="422px" font-weight="400"><tspan class="TextPosition" x="18531" y="17830"><tspan fill="rgb(0,0,0)" stroke="none">[</tspan></tspan></tspan></text>
         <text class="TextShape"><tspan class="TextParagraph" font-family="Liberation Serif, serif" font-size="422px" font-style="italic" font-weight="400"><tspan class="TextPosition" x="18690" y="17830"><tspan fill="rgb(0,0,0)" stroke="none">n</tspan></tspan></tspan></text>
         <text class="TextShape"><tspan class="TextParagraph" font-family="OpenSymbol" font-size="422px" font-weight="400"><tspan class="TextPosition" x="18954" y="17830"><tspan fill="rgb(0,0,0)" stroke="none">]</tspan></tspan></tspan></text>
        </g>
       </g>
      </g>
      <g class="OLE2">
       <g id="id7">
        <rect class="BoundingBox" stroke="none" fill="none" x="15300" y="17467" width="924" height="467"/>
        <defs>
         <clipPath id="clip_path_3" clipPathUnits="userSpaceOnUse">
          <path d="M 15293,17463 L 16219,17463 16219,17939 15293,17939 15293,17463 Z"/>
         </clipPath>
        </defs>
        <g clip-path="url(#clip_path_3)">
         <text class="TextShape"><tspan class="TextParagraph" font-family="OpenSymbol" font-size="422px" font-weight="400"><tspan class="TextPosition" x="15459" y="17837"><tspan fill="rgb(0,0,0)" stroke="none">×</tspan></tspan></tspan></text>
         <text class="TextShape"><tspan class="TextParagraph" font-family="Liberation Serif, serif" font-size="422px" font-style="italic" font-weight="400"><tspan class="TextPosition" x="15803" y="17837"><tspan fill="rgb(0,0,0)" stroke="none">G</tspan></tspan></tspan></text>
        </g>
       </g>
      </g>
      <g class="com.sun.star.drawing.CustomShape">
       <g id="id8">
        <rect class="BoundingBox" stroke="none" fill="none" x="15278" y="16880" width="1643" height="1642"/>
        <path fill="none" stroke="rgb(0,0,0)" stroke-width="40" stroke-linejoin="round" d="M 16900,17700 L 15300,18500 15300,16900 16900,17700 Z"/>
       </g>
      </g>
     </g>
    </g>
   </g>
  </g>
 </g>
</svg>