<?xml version="1.0" standalone="no"?>
<!DOCTYPE svg PUBLIC "-//W3C//DTD SVG 20010904//EN"
 "http://www.w3.org/TR/2001/REC-SVG-20010904/DTD/svg10.dtd">
<svg version="1.0" xmlns="http://www.w3.org/2000/svg"
 width="3952.000000pt" height="2728.000000pt" viewBox="0 0 3952.000000 2728.000000"
 preserveAspectRatio="xMidYMid meet">
<metadata>
Created by potrace 1.16, written by Peter Selinger 2001-2019
</metadata>
<g transform="translate(0.000000,2728.000000) scale(0.100000,-0.100000)"
fill="#000000" stroke="none">
<path d="M8410 23758 c-76 -41 -104 -205 -55 -325 24 -57 104 -80 165 -48 45
23 63 68 68 165 5 99 -8 157 -42 189 -30 28 -100 38 -136 19z m99 -47 c26 -26
34 -73 29 -172 -3 -74 -6 -83 -31 -105 -80 -69 -143 30 -122 192 11 90 75 134
124 85z"/>
<path d="M30962 23230 l-34 -21 -3386 11 c-1863 6 -3394 12 -3403 14 -9 2
-3524 -7 -7810 -20 l-7794 -24 -36 20 c-44 24 -80 25 -119 5 -57 -29 -78 -95
-45 -142 18 -26 19 -25 -103 -43 l-83 -13 32 -33 32 -33 -44 -50 c-106 -120
-234 -259 -240 -260 -3 -1 -44 24 -90 56 -170 114 -356 180 -562 199 l-77 7 0
-31 c0 -30 1 -30 63 -37 166 -17 290 -51 411 -112 78 -39 206 -121 206 -131 0
-4 -111 -129 -247 -277 l-246 -270 -47 3 c-38 3 -52 -1 -76 -21 l-29 -24
-1447 -6 c-1034 -4 -1454 -9 -1468 -17 -29 -16 -23 -60 10 -77 19 -9 338 -11
1461 -6 l1437 6 32 -26 c46 -39 92 -37 137 8 36 36 37 43 21 115 -4 19 490
562 506 557 24 -8 129 -145 162 -212 50 -101 61 -172 46 -304 -19 -173 -82
-352 -162 -460 l-33 -44 -14 27 -15 28 -16 -23 c-8 -13 -35 -50 -59 -81 l-44
-58 100 0 99 0 -11 29 c-9 24 -7 32 13 52 57 60 123 187 159 309 35 119 45
184 45 305 0 98 -3 130 -21 177 -31 83 -87 171 -156 245 l-60 64 39 42 c22 23
87 93 144 155 l103 113 43 -42 c49 -48 44 -55 68 81 9 56 16 74 27 71 65 -18
115 -6 148 35 l19 24 6488 20 c7764 24 8740 25 12762 10 l3113 -11 27 -30 c28
-31 86 -48 119 -34 37 16 40 12 52 -67 18 -117 17 -116 66 -68 l42 41 157
-171 158 -171 -55 -59 c-64 -69 -120 -158 -150 -238 -18 -47 -21 -79 -21 -177
0 -121 10 -186 45 -305 36 -122 102 -249 159 -309 20 -20 22 -28 13 -52 l-11
-29 99 0 100 0 -44 58 c-24 31 -51 68 -59 81 l-16 23 -15 -28 -14 -27 -33 44
c-104 141 -184 429 -167 599 12 108 72 229 166 330 l41 45 43 -46 c402 -437
438 -479 427 -498 -19 -37 -11 -72 24 -107 44 -44 99 -47 146 -7 l32 26 1437
-6 c1123 -5 1442 -3 1461 6 33 17 39 61 10 77 -14 8 -434 13 -1468 17 l-1447
6 -29 24 c-25 21 -38 24 -81 21 l-52 -3 -231 253 c-128 140 -232 257 -232 262
0 15 106 86 198 133 134 70 255 104 430 122 61 7 62 7 62 37 l0 31 -77 -7
c-209 -19 -385 -82 -566 -202 -96 -64 -100 -66 -116 -48 -10 11 -66 73 -126
139 -60 66 -123 135 -139 153 l-30 32 33 34 33 34 -94 14 c-71 11 -92 18 -89
29 20 70 9 109 -42 139 -41 25 -83 25 -125 0z"/>
<path d="M11352 22418 c-31 -20 -52 -40 -52 -50 0 -23 7 -23 48 2 18 11 35 20
37 20 3 0 5 -63 5 -139 l0 -140 -42 -3 c-30 -2 -43 -8 -43 -18 0 -12 20 -16
108 -18 102 -3 107 -2 107 18 0 17 -6 20 -40 20 l-40 0 0 170 c0 196 2 193
-88 138z"/>
<path d="M35680 22021 l0 -251 51 0 c43 0 50 3 47 18 -2 10 -14 18 -31 20
l-27 3 0 209 0 209 28 3 c16 2 27 9 27 18 0 11 -13 16 -47 18 l-48 3 0 -250z"/>
<path d="M36150 22251 c0 -16 6 -21 25 -21 l25 0 0 -210 0 -210 -25 0 c-19 0
-25 -5 -25 -21 0 -18 5 -20 48 -17 l47 3 0 245 0 245 -47 3 c-43 3 -48 1 -48
-17z"/>
<path d="M3470 21961 l0 -251 51 0 c43 0 50 3 47 18 -2 10 -14 18 -31 20 l-27
3 0 209 0 209 28 3 c16 2 27 9 27 18 0 11 -13 16 -47 18 l-48 3 0 -250z"/>
<path d="M3940 22191 c0 -16 6 -21 25 -21 l25 0 0 -210 0 -210 -25 0 c-19 0
-25 -5 -25 -21 0 -18 5 -20 48 -17 l47 3 0 245 0 245 -47 3 c-43 3 -48 1 -48
-17z"/>
<path d="M35921 22124 c-30 -25 -31 -25 -31 -5 0 14 -6 21 -20 21 -19 0 -20
-7 -20 -140 0 -133 1 -140 20 -140 19 0 20 7 20 99 0 99 0 99 31 125 69 59 97
27 101 -114 3 -100 4 -105 26 -108 22 -3 22 -2 22 113 0 115 0 117 -29 146
-37 37 -79 38 -120 3z"/>
<path d="M35360 22135 c0 -2 23 -66 51 -142 l52 -137 -17 -45 c-9 -25 -16 -49
-16 -53 0 -12 38 -9 45 2 9 15 135 363 135 373 0 5 -10 7 -22 5 -22 -3 -46
-56 -92 -203 -5 -14 -18 11 -47 93 -37 100 -44 112 -65 112 -13 0 -24 -2 -24
-5z"/>
<path d="M3711 22064 c-30 -25 -31 -25 -31 -5 0 14 -6 21 -20 21 -19 0 -20 -7
-20 -140 0 -133 1 -140 20 -140 19 0 20 7 20 99 0 99 0 99 31 125 69 59 97 27
101 -114 3 -100 4 -105 26 -108 22 -3 22 -2 22 113 0 115 0 117 -29 146 -37
37 -79 38 -120 3z"/>
<path d="M3174 22065 c3 -8 21 -39 40 -69 l34 -54 -22 -33 c-12 -19 -32 -51
-45 -71 l-23 -38 25 0 c20 0 33 12 60 57 l35 56 26 -42 c15 -23 30 -49 33 -57
6 -16 53 -19 53 -4 0 6 -18 38 -39 72 l-39 62 39 61 c21 34 39 65 39 69 0 3
-9 6 -20 6 -14 0 -31 -16 -52 -50 -17 -27 -34 -50 -37 -50 -3 0 -19 23 -34 50
-22 40 -33 50 -54 50 -18 0 -24 -4 -19 -15z"/>
<path d="M10190 21070 l0 -800 -775 0 -774 0 -37 25 c-105 72 -233 -36 -165
-139 20 -29 27 -33 87 -43 33 -5 81 14 103 41 12 14 97 16 787 16 l774 0 0
-770 0 -770 1200 0 1200 0 0 770 0 770 9154 0 c8296 0 9155 -1 9167 -16 22
-27 70 -46 103 -41 60 10 67 14 87 43 36 55 19 118 -41 149 -42 22 -82 18
-124 -10 l-37 -25 -9154 0 -9155 0 0 800 0 800 -1200 0 -1200 0 0 -800z m2370
-820 l0 -1600 -1170 0 -1170 0 0 1600 0 1600 1170 0 1170 0 0 -1600z"/>
<path d="M11208 20505 c-5 -5 -8 -102 -8 -218 l0 -209 118 4 c108 3 120 5 159
31 24 15 49 27 57 27 8 0 25 19 37 43 20 36 24 56 23 136 0 76 -3 96 -17 106
-9 7 -17 17 -17 22 0 9 -16 19 -75 43 -35 14 -266 26 -277 15z m261 -62 c51
-23 81 -75 81 -137 0 -59 -19 -95 -69 -135 -37 -30 -43 -31 -130 -31 l-91 0 0
158 c0 87 3 162 8 166 13 14 160 -1 201 -21z"/>
<path d="M8412 20818 c-31 -20 -52 -40 -52 -50 0 -23 7 -23 48 2 18 11 35 20
37 20 3 0 5 -63 5 -139 l0 -140 -42 -3 c-30 -2 -43 -8 -43 -18 0 -12 20 -16
108 -18 102 -3 107 -2 107 18 0 17 -6 20 -40 20 l-40 0 0 170 c0 196 2 193
-88 138z"/>
<path d="M15370 18403 c-22 -11 -36 -27 -38 -42 -2 -13 0 -21 5 -19 68 34 88
39 110 29 13 -6 28 -22 35 -36 19 -42 -4 -92 -87 -185 -42 -47 -74 -92 -73
-100 3 -12 26 -16 121 -18 112 -3 117 -2 117 18 0 19 -6 20 -85 20 -47 0 -85
3 -85 6 0 4 28 36 61 72 68 73 89 112 89 171 0 83 -88 126 -170 84z"/>
<path d="M11392 18378 c-31 -20 -52 -40 -52 -50 0 -23 7 -23 48 2 18 11 35 20
37 20 3 0 5 -63 5 -139 l0 -140 -42 -3 c-30 -2 -43 -8 -43 -18 0 -12 20 -16
108 -18 102 -3 107 -2 107 18 0 17 -6 20 -40 20 l-40 0 0 170 c0 196 2 193
-88 138z"/>
<path d="M10200 17065 l0 -795 -775 0 -774 0 -37 25 c-105 72 -233 -36 -165
-139 20 -29 27 -33 87 -43 33 -5 81 14 103 41 12 14 97 16 787 16 l774 0 0
-775 0 -775 1200 0 1200 0 0 780 0 780 800 0 800 0 0 -780 0 -780 1200 0 1200
0 0 780 0 780 7149 0 c6476 0 7150 -1 7162 -16 22 -27 70 -46 103 -41 60 10
67 14 87 43 36 55 19 118 -41 149 -42 22 -82 18 -124 -10 l-37 -25 -7149 0
-7150 0 0 790 0 790 -1200 0 -1200 0 0 -790 0 -790 -800 0 -800 0 0 790 0 790
-1200 0 -1200 0 0 -795z m2370 -825 l0 -1600 -1170 0 -1170 0 0 1600 0 1600
1170 0 1170 0 0 -1600z m4000 0 l0 -1600 -1170 0 -1170 0 0 1600 0 1600 1170
0 1170 0 0 -1600z"/>
<path d="M11218 16495 c-5 -5 -8 -102 -8 -218 l0 -209 118 4 c108 3 120 5 159
31 24 15 49 27 57 27 8 0 25 19 37 43 20 36 24 56 23 136 0 76 -3 96 -17 106
-9 7 -17 17 -17 22 0 9 -16 19 -75 43 -35 14 -266 26 -277 15z m261 -62 c51
-23 81 -75 81 -137 0 -59 -19 -95 -69 -135 -37 -30 -43 -31 -130 -31 l-91 0 0
158 c0 87 3 162 8 166 13 14 160 -1 201 -21z"/>
<path d="M15218 16495 c-5 -5 -8 -102 -8 -218 l0 -209 118 4 c108 3 120 5 159
31 24 15 49 27 57 27 8 0 25 19 37 43 20 36 24 56 23 136 0 76 -3 96 -17 106
-9 7 -17 17 -17 22 0 9 -16 19 -75 43 -35 14 -266 26 -277 15z m261 -62 c51
-23 81 -75 81 -137 0 -59 -19 -95 -69 -135 -37 -30 -43 -31 -130 -31 l-91 0 0
158 c0 87 3 162 8 166 13 14 160 -1 201 -21z"/>
<path d="M8390 16853 c-22 -11 -36 -27 -38 -42 -2 -13 0 -21 5 -19 68 34 88
39 110 29 13 -6 28 -22 35 -36 19 -42 -4 -92 -87 -185 -42 -47 -74 -92 -73
-100 3 -12 26 -16 121 -18 112 -3 117 -2 117 18 0 19 -6 20 -85 20 -47 0 -85
3 -85 6 0 4 28 36 61 72 68 73 89 112 89 171 0 83 -88 126 -170 84z"/>
<path d="M19370 14443 c-22 -11 -36 -27 -38 -42 -2 -13 0 -21 5 -19 4 2 24 12
44 22 46 23 86 15 99 -20 22 -57 -16 -104 -82 -104 -31 0 -38 -4 -38 -20 0
-17 7 -20 44 -20 55 0 96 -30 96 -70 0 -68 -66 -85 -167 -44 -8 4 -13 -3 -13
-16 0 -25 51 -50 106 -50 117 0 177 125 88 185 l-30 20 24 20 c17 14 26 35 29
66 4 38 1 50 -19 73 -31 37 -97 45 -148 19z"/>
<path d="M11372 14418 c-31 -20 -52 -40 -52 -50 0 -23 7 -23 48 2 18 11 35 20
37 20 3 0 5 -63 5 -139 l0 -140 -42 -3 c-30 -2 -43 -8 -43 -18 0 -12 20 -16
108 -18 102 -3 107 -2 107 18 0 17 -6 20 -40 20 l-40 0 0 170 c0 196 2 193
-88 138z"/>
<path d="M15370 14423 c-22 -11 -36 -27 -38 -42 -2 -13 0 -21 5 -19 68 34 88
39 110 29 13 -6 28 -22 35 -36 19 -42 -4 -92 -87 -185 -42 -47 -74 -92 -73
-100 3 -12 26 -16 121 -18 112 -3 117 -2 117 18 0 19 -6 20 -85 20 -47 0 -85
3 -85 6 0 4 28 36 61 72 68 73 89 112 89 171 0 83 -88 126 -170 84z"/>
<path d="M10220 13095 l0 -805 -785 0 -784 0 -37 25 c-105 72 -233 -36 -165
-139 20 -29 27 -33 87 -43 33 -5 81 14 103 41 12 14 98 16 797 16 l784 0 0
-765 0 -765 1200 0 1200 0 0 815 0 815 800 0 800 0 0 -825 0 -825 1200 0 1200
0 0 815 0 815 790 0 790 0 0 -805 0 -805 1200 0 1200 0 0 770 0 770 5144 0
c4656 0 5145 -1 5157 -16 22 -27 70 -46 103 -41 60 10 67 14 87 43 36 55 19
118 -41 149 -42 22 -82 18 -124 -10 l-37 -25 -5144 0 -5145 0 0 800 0 800
-1200 0 -1200 0 0 -755 0 -755 -790 0 -790 0 0 745 0 745 -1200 0 -1200 0 0
-745 0 -745 -800 0 -800 0 0 755 0 755 -1200 0 -1200 0 0 -805z m2370 -815 l0
-1600 -1170 0 -1170 0 0 1600 0 1600 1170 0 1170 0 0 -1600z m7980 0 l0 -1600
-1170 0 -1170 0 0 1600 0 1600 1170 0 1170 0 0 -1600z m-3980 -20 l0 -1600
-1170 0 -1170 0 0 1600 0 1600 1170 0 1170 0 0 -1600z"/>
<path d="M11238 12535 c-5 -5 -8 -102 -8 -218 l0 -209 118 4 c108 3 120 5 159
31 24 15 49 27 57 27 8 0 25 19 37 43 20 36 24 56 23 136 0 76 -3 96 -17 106
-9 7 -17 17 -17 22 0 9 -16 19 -75 43 -35 14 -266 26 -277 15z m261 -62 c51
-23 81 -75 81 -137 0 -59 -19 -95 -69 -135 -37 -30 -43 -31 -130 -31 l-91 0 0
158 c0 87 3 162 8 166 13 14 160 -1 201 -21z"/>
<path d="M19218 12535 c-5 -5 -8 -102 -8 -218 l0 -209 118 4 c108 3 120 5 159
31 24 15 49 27 57 27 8 0 25 19 37 43 20 36 24 56 23 136 0 76 -3 96 -17 106
-9 7 -17 17 -17 22 0 9 -16 19 -75 43 -35 14 -266 26 -277 15z m261 -62 c51
-23 81 -75 81 -137 0 -59 -19 -95 -69 -135 -37 -30 -43 -31 -130 -31 l-91 0 0
158 c0 87 3 162 8 166 13 14 160 -1 201 -21z"/>
<path d="M15238 12515 c-5 -5 -8 -102 -8 -218 l0 -209 118 4 c108 3 120 5 159
31 24 15 49 27 57 27 8 0 25 19 37 43 20 36 24 56 23 136 0 76 -3 96 -17 106
-9 7 -17 17 -17 22 0 9 -16 19 -75 43 -35 14 -266 26 -277 15z m261 -62 c51
-23 81 -75 81 -137 0 -59 -19 -95 -69 -135 -37 -30 -43 -31 -130 -31 l-91 0 0
158 c0 87 3 162 8 166 13 14 160 -1 201 -21z"/>
<path d="M8390 12873 c-22 -11 -36 -27 -38 -42 -2 -13 0 -21 5 -19 4 2 24 12
44 22 46 23 86 15 99 -20 22 -57 -16 -104 -82 -104 -31 0 -38 -4 -38 -20 0
-17 7 -20 44 -20 55 0 96 -30 96 -70 0 -68 -66 -85 -167 -44 -8 4 -13 -3 -13
-16 0 -25 51 -50 106 -50 117 0 177 125 88 185 l-30 20 24 20 c17 14 26 35 29
66 4 38 1 50 -19 73 -31 37 -97 45 -148 19z"/>
<path d="M11350 10088 c-52 -27 -90 -90 -90 -148 0 -58 38 -121 90 -147 24
-13 58 -23 75 -23 53 0 116 40 142 89 45 86 15 186 -67 229 -24 12 -58 22 -75
22 -17 0 -51 -10 -75 -22z"/>
<path d="M11350 9198 c-52 -27 -90 -90 -90 -148 0 -58 38 -121 90 -147 24 -13
58 -23 75 -23 53 0 116 40 142 89 45 86 15 186 -67 229 -24 12 -58 22 -75 22
-17 0 -51 -10 -75 -22z"/>
<path d="M11354 8281 c-81 -37 -115 -141 -74 -226 30 -63 69 -85 145 -85 76 0
115 22 145 85 54 111 -25 245 -145 245 -16 0 -48 -9 -71 -19z"/>
<path d="M11408 7953 c12 -2 30 -2 40 0 9 3 -1 5 -23 4 -22 0 -30 -2 -17 -4z"/>
<path d="M24400 7643 c-22 -11 -36 -27 -38 -42 -2 -13 0 -21 5 -19 68 34 88
39 110 29 13 -6 28 -22 35 -36 19 -42 -4 -92 -87 -185 -42 -47 -74 -92 -73
-100 3 -12 26 -16 121 -18 112 -3 117 -2 117 18 0 19 -6 20 -85 20 -47 0 -85
3 -85 6 0 4 28 36 61 72 68 73 89 112 89 171 0 83 -88 126 -170 84z"/>
<path d="M23807 7644 c-4 -4 -7 -90 -7 -191 l0 -183 25 0 25 0 0 158 0 157 65
-115 c112 -202 112 -202 143 -198 l27 3 0 185 c0 184 0 185 -22 188 -22 3 -22
2 -25 -146 l-3 -150 -81 146 c-74 132 -85 147 -111 150 -16 2 -32 0 -36 -4z"/>
<path d="M27827 7644 c-4 -4 -7 -90 -7 -191 l0 -183 25 0 25 0 0 158 0 157 65
-115 c112 -202 112 -202 143 -198 l27 3 0 185 c0 184 0 185 -22 188 -22 3 -22
2 -25 -146 l-3 -150 -81 146 c-74 132 -85 147 -111 150 -16 2 -32 0 -36 -4z"/>
<path d="M28442 7618 c-31 -20 -52 -40 -52 -50 0 -23 7 -23 48 2 18 11 35 20
37 20 3 0 5 -63 5 -139 l0 -140 -42 -3 c-30 -2 -43 -8 -43 -18 0 -12 20 -16
108 -18 102 -3 107 -2 107 18 0 17 -6 20 -40 20 l-40 0 0 170 c0 196 2 193
-88 138z"/>
<path d="M15350 7623 c-22 -11 -36 -27 -38 -42 -2 -13 0 -21 5 -19 68 34 88
39 110 29 13 -6 28 -22 35 -36 19 -42 -4 -92 -87 -185 -42 -47 -74 -92 -73
-100 3 -12 26 -16 121 -18 112 -3 117 -2 117 18 0 19 -6 20 -85 20 -47 0 -85
3 -85 6 0 4 28 36 61 72 68 73 89 112 89 171 0 83 -88 126 -170 84z"/>
<path d="M11352 7598 c-31 -20 -52 -40 -52 -50 0 -23 7 -23 48 2 18 11 35 20
37 20 3 0 5 -63 5 -139 l0 -140 -42 -3 c-30 -2 -43 -8 -43 -18 0 -12 20 -16
108 -18 102 -3 107 -2 107 18 0 17 -6 20 -40 20 l-40 0 0 170 c0 196 2 193
-88 138z"/>
<path d="M24160 7420 c0 -18 7 -20 70 -20 63 0 70 2 70 20 0 18 -7 20 -70 20
-63 0 -70 -2 -70 -20z"/>
<path d="M28180 7420 c0 -18 7 -20 70 -20 63 0 70 2 70 20 0 18 -7 20 -70 20
-63 0 -70 -2 -70 -20z"/>
<path d="M22970 5470 l0 -1620 1200 0 1200 0 0 780 0 780 800 0 800 0 0 -780
0 -780 1200 0 1200 0 0 775 0 775 774 0 c690 0 775 -2 787 -16 22 -27 70 -46
103 -41 60 10 67 14 87 43 36 55 19 118 -41 149 -42 22 -82 18 -124 -10 l-37
-25 -774 0 -775 0 0 795 0 795 -1200 0 -1200 0 0 -790 0 -790 -800 0 -800 0 0
790 0 790 -1200 0 -1200 0 0 -1620z m2370 0 l0 -1600 -1170 0 -1170 0 0 1600
0 1600 1170 0 1170 0 0 -1600z m4000 0 l0 -1600 -1170 0 -1170 0 0 1600 0
1600 1170 0 1170 0 0 -1600z"/>
<path d="M23988 5725 c-5 -5 -8 -102 -8 -218 l0 -209 118 4 c108 3 120 5 159
31 24 15 49 27 57 27 8 0 25 19 37 43 20 36 24 56 23 136 0 76 -3 96 -17 106
-9 7 -17 17 -17 22 0 9 -16 19 -75 43 -35 14 -266 26 -277 15z m261 -62 c51
-23 81 -75 81 -137 0 -59 -19 -95 -69 -135 -37 -30 -43 -31 -130 -31 l-91 0 0
158 c0 87 3 162 8 166 13 14 160 -1 201 -21z"/>
<path d="M27988 5725 c-5 -5 -8 -102 -8 -218 l0 -209 118 4 c108 3 120 5 159
31 24 15 49 27 57 27 8 0 25 19 37 43 20 36 24 56 23 136 0 76 -3 96 -17 106
-9 7 -17 17 -17 22 0 9 -16 19 -75 43 -35 14 -266 26 -277 15z m261 -62 c51
-23 81 -75 81 -137 0 -59 -19 -95 -69 -135 -37 -30 -43 -31 -130 -31 l-91 0 0
158 c0 87 3 162 8 166 13 14 160 -1 201 -21z"/>
<path d="M10210 6275 l0 -795 -780 0 -779 0 -37 25 c-105 72 -233 -36 -165
-139 20 -29 27 -33 87 -43 33 -5 81 14 103 41 12 14 98 16 792 16 l779 0 0
-775 0 -775 1200 0 1200 0 0 780 0 780 800 0 800 0 0 -780 0 -780 1200 0 1200
0 0 1620 0 1620 -1200 0 -1200 0 0 -790 0 -790 -800 0 -800 0 0 790 0 790
-1200 0 -1200 0 0 -795z m2370 -825 l0 -1600 -1170 0 -1170 0 0 1600 0 1600
1170 0 1170 0 0 -1600z m4000 0 l0 -1600 -1170 0 -1170 0 0 1600 0 1600 1170
0 1170 0 0 -1600z"/>
<path d="M11228 5705 c-5 -5 -8 -102 -8 -218 l0 -209 118 4 c108 3 120 5 159
31 24 15 49 27 57 27 8 0 25 19 37 43 20 36 24 56 23 136 0 76 -3 96 -17 106
-9 7 -17 17 -17 22 0 9 -16 19 -75 43 -35 14 -266 26 -277 15z m261 -62 c51
-23 81 -75 81 -137 0 -59 -19 -95 -69 -135 -37 -30 -43 -31 -130 -31 l-91 0 0
158 c0 87 3 162 8 166 13 14 160 -1 201 -21z"/>
<path d="M15228 5705 c-5 -5 -8 -102 -8 -218 l0 -209 118 4 c108 3 120 5 159
31 24 15 49 27 57 27 8 0 25 19 37 43 20 36 24 56 23 136 0 76 -3 96 -17 106
-9 7 -17 17 -17 22 0 9 -16 19 -75 43 -35 14 -266 26 -277 15z m261 -62 c51
-23 81 -75 81 -137 0 -59 -19 -95 -69 -135 -37 -30 -43 -31 -130 -31 l-91 0 0
158 c0 87 3 162 8 166 13 14 160 -1 201 -21z"/>
<path d="M8457 6064 c-4 -4 -7 -90 -7 -191 l0 -183 25 0 25 0 0 158 0 157 65
-115 c112 -202 112 -202 143 -198 l27 3 0 185 c0 184 0 185 -22 188 -22 3 -22
2 -25 -146 l-3 -150 -81 146 c-74 132 -85 147 -111 150 -16 2 -32 0 -36 -4z"/>
<path d="M9072 6038 c-31 -20 -52 -40 -52 -50 0 -23 7 -23 48 2 18 11 35 20
37 20 3 0 5 -63 5 -139 l0 -140 -42 -3 c-30 -2 -43 -8 -43 -18 0 -12 20 -16
108 -18 102 -3 107 -2 107 18 0 17 -6 20 -40 20 l-40 0 0 170 c0 196 2 193
-88 138z"/>
<path d="M8810 5840 c0 -18 7 -20 70 -20 63 0 70 2 70 20 0 18 -7 20 -70 20
-63 0 -70 -2 -70 -20z"/>
<path d="M18580 5558 c-52 -27 -90 -90 -90 -148 0 -58 38 -121 90 -147 24 -13
58 -23 75 -23 53 0 116 40 142 89 45 86 15 186 -67 229 -24 12 -58 22 -75 22
-17 0 -51 -10 -75 -22z"/>
<path d="M19690 5558 c-52 -27 -90 -90 -90 -148 0 -58 38 -121 90 -147 24 -13
58 -23 75 -23 53 0 116 40 142 89 45 86 15 186 -67 229 -24 12 -58 22 -75 22
-17 0 -51 -10 -75 -22z"/>
<path d="M20790 5558 c-52 -27 -90 -90 -90 -148 0 -58 38 -121 90 -147 24 -13
58 -23 75 -23 53 0 116 40 142 89 45 86 15 186 -67 229 -24 12 -58 22 -75 22
-17 0 -51 -10 -75 -22z"/>
</g>
</svg>
